"schwarze Überschrift
(hier ein x, falls zutreffend)",1. Ebene,2. Ebene,3. Ebene,4. Ebene,"tatsächlicher Seitentitel
(bitte ändern, falls noch nicht umgesetzt)","SeitenUNTERtitel
(bitte ändern, falls noch nicht umgesetzt)",Ordner,"Download
(hier aus technischen Gründen nur die Dateinamen durch Komma getrennt)","alternative Downloadbezeichnung
(abweichend von Spalte I durch Kommas getrennt)","Ebene
(Kommas, wenn mehrere Dateien, sonst -1 bis -3 falls Datei weiter oben liegt)","falls Datei in HTML, dann x, (so viele Kommas wie in Feld K)
entfällt evtl. bei nächster Version","Material-eingrenzung
(HTML-Seite entspricht welcher Seite der Druckvorlage, die nummeriert ist)
(1-3 oder 1 oder 4)","Urheber-rechtsform
(htLocalContro.txt)","Bemerkungen
(iSpring-Ordner umsetzen; Notizen von Folien beachten; Rote Wüste; …)","Präsentation
(enspricht dem Ordner der mit ispring umgesetzen Präsentation)",Anmerkungen
,Fortbildungskonzeption,,,,,,1_konzeption,ppt_einfuehrung_zpg_2021.pptx,Fortbildungskonzeption,,,,htLocalControl.txt,"iSpring-Ordner umsetzen (ohne Notizen)

Notizen von Folie 4 unter die Präs setzen > alle anderen Notizen sind evtl. versehentlich identisch",,
,Interkulturelle kommunikative Kompetenz: La Belgique,,,,,,2_kommunikation,,,,,,,,,
,,À la découverte de la Belgique historique et politique,,,,,1_politique,ae_la_decouverte_de_la_belgique_histoire_et_politique-ausgeduennt.docx,À la découverte de la Belgique historique et politique,,,,,"kein Download der Datei an dieser Stelle, da in den Unterordnern umgesetzt",,
,,,Gesamtübersicht,,Gesamtübersicht über die Einheit „La Belgique“,,1_uebersicht,ae_la_decouverte_de_la_belgique_histoire_et_politique-ausgeduennt.docx,À la découverte de la Belgique historique et politique,-1,,1-3,,,,
,,,À la découverte de la Belgique,,,,2_decouverte,ae_la_decouverte_de_la_belgique_histoire_et_politique-ausgeduennt.docx,À la découverte de la Belgique historique et politique,-1,,4-6,,,,
,,,Dossier,,Dossier  „À la découverte de la Belgique – histoire et politique“,,3_dossier,ae_la_decouverte_de_la_belgique_histoire_et_politique-ausgeduennt.docx,À la découverte de la Belgique historique et politique,-1,,,,,,
,,,,M1 La francophonie,,,01_dossier,ae_la_decouverte_de_la_belgique_histoire_et_politique-ausgeduennt.docx,À la découverte de la Belgique historique et politique,-2,,7-8,,,,
,,,,M2 L’OIF,,,02_loif,ae_la_decouverte_de_la_belgique_histoire_et_politique-ausgeduennt.docx,À la découverte de la Belgique historique et politique,-2,,8,,,,
,,,,M3 La Belgique : informations-clés ,,,03_info-cles,ae_la_decouverte_de_la_belgique_histoire_et_politique-ausgeduennt.docx,À la découverte de la Belgique historique et politique,-2,,9,,,,
,,,,M4 La télévision belge ,,,04_television,ae_la_decouverte_de_la_belgique_histoire_et_politique-ausgeduennt.docx,À la découverte de la Belgique historique et politique,-2,,10,,,,
,,,,M5 La situation linguistique en Belgique,,,05_linguistique,ae_la_decouverte_de_la_belgique_histoire_et_politique-ausgeduennt.docx,À la découverte de la Belgique historique et politique,-2,,11,,,,
,,,,M6 Quelques faits insolites concernant la situation linguistique en Belgique,,,06_faits-insolites,ae_la_decouverte_de_la_belgique_histoire_et_politique-ausgeduennt.docx,À la découverte de la Belgique historique et politique,-2,,11-12,,,,
,,,,M7 Leuven – Louvain-la-Neuve,,,07_leuven,ae_la_decouverte_de_la_belgique_histoire_et_politique-ausgeduennt.docx,À la découverte de la Belgique historique et politique,-2,,13-14,,,,
,,,,M8 Un conflit historique et éternel,,,08_conflit,ae_la_decouverte_de_la_belgique_histoire_et_politique-ausgeduennt.docx,À la découverte de la Belgique historique et politique,-2,,15-16,,,,
,,,,M9 La monarchie belge ,,,09_monarchie,ae_la_decouverte_de_la_belgique_histoire_et_politique-ausgeduennt.docx,À la découverte de la Belgique historique et politique,-2,,17,,,,
,,,,M10 Le système politique belge,,,10_politique,ae_la_decouverte_de_la_belgique_histoire_et_politique-ausgeduennt.docx,À la découverte de la Belgique historique et politique,-2,,18-19,,,,
,,,,M11 Pourquoi la Belgique subsiste-t-elle (encore)?,,,11_pourquoi,ae_la_decouverte_de_la_belgique_histoire_et_politique-ausgeduennt.docx,À la découverte de la Belgique historique et politique,-2,,19-20,,,,
,,,,"M12 La Belgique, quelle histoire?",,,12_histoire,ae_la_decouverte_de_la_belgique_histoire_et_politique-ausgeduennt.docx,À la découverte de la Belgique historique et politique,-2,,20-21,,,,
,,,,M13 Questions d’identité,,,13_identite,ae_la_decouverte_de_la_belgique_histoire_et_politique-ausgeduennt.docx,À la découverte de la Belgique historique et politique,-2,,22-23,,,,
,,,,M14 La Belgique expliquée aux enfants,,,14_enfants,ae_la_decouverte_de_la_belgique_histoire_et_politique-ausgeduennt.docx,À la découverte de la Belgique historique et politique,-2,,24-25,,,,
,,,,M15 Paris – Leuven 1968,,,15_paris-leuven,ae_la_decouverte_de_la_belgique_histoire_et_politique-ausgeduennt.docx,À la découverte de la Belgique historique et politique,-2,,26,,,,
,,,,M16 „Knuffelen“ für Belgien ,,,16_knuffelen,ae_la_decouverte_de_la_belgique_histoire_et_politique-ausgeduennt.docx,À la découverte de la Belgique historique et politique,-2,,27,,,,
,,,,M17 La République démocratique du Congo,M17 Le dessous des cartes – la République démocratique du Congo,,17_congo,ae_la_decouverte_de_la_belgique_histoire_et_politique-ausgeduennt.docx,À la découverte de la Belgique historique et politique,-2,,28-29,,,,
,,,,M18 Atrocités coloniales,,,18_atrocites,ae_la_decouverte_de_la_belgique_histoire_et_politique-ausgeduennt.docx,À la découverte de la Belgique historique et politique,-2,,30,,,,
,,,,M19 Les „regrets“  du Roi sur la colonisation,,,19_regrets,ae_la_decouverte_de_la_belgique_histoire_et_politique-ausgeduennt.docx,À la découverte de la Belgique historique et politique,-2,,31-32,,,,
,,,,M20 Congo Stars,,,20_stars,ae_la_decouverte_de_la_belgique_histoire_et_politique-ausgeduennt.docx,À la découverte de la Belgique historique et politique,-2,,32-33,,,,
,,,,Tâche : Préparation d’une contribution pour le padlet,,,21_tache,ae_la_decouverte_de_la_belgique_histoire_et_politique-ausgeduennt.docx,À la découverte de la Belgique historique et politique,-2,,34-36,,,,
,,,Littérature,,,,4_lit,ae_la_decouverte_de_la_belgique_histoire_et_politique-ausgeduennt.docx,À la découverte de la Belgique historique et politique,-1,,37-38,,,,
,,Curiosités culinaires et autres sur la Belgique,,,,,2_culinaires,curiosites_culinaires_et_autres_sur_la_belgique-ausgeduennt.docx,Curiosités culinaires et autres sur la Belgique,,,1-2,htLocalControl.txt,,,
,,,M1 Les spécialités belges,,,,01_uebersicht,curiosites_culinaires_et_autres_sur_la_belgique-ausgeduennt.docx,Curiosités culinaires et autres sur la Belgique,-1,,3-5,htLocalControl.txt,,,
,,,M2 Quelques faits insolites sur la Belgique,,,,02_faits,curiosites_culinaires_et_autres_sur_la_belgique-ausgeduennt.docx,Curiosités culinaires et autres sur la Belgique,-1,,6-7,htLocalControl.txt,,,
,,,M3 Le „Miss SDF Tour“ bouscule la Belgique,,,,03_tour,curiosites_culinaires_et_autres_sur_la_belgique-ausgeduennt.docx,Curiosités culinaires et autres sur la Belgique,-1,,8-10,htLocalControl.txt,,,
,,La Belgique à travers la caricature,,,,,3_caricature,la_belgique_ae_travers_la_caricature_stand-ausgeduennt.docx,La Belgique à travers la caricature,,,1-2,,,,
,,,M1 Qu’est-ce qu’une caricature?,,,,01_caricature,la_belgique_ae_travers_la_caricature_stand-ausgeduennt.docx,La Belgique à travers la caricature,-1,,3-4,,,,
,,,M2 Approche de l’analyse d’une caricature,,,,02_approche,la_belgique_ae_travers_la_caricature_stand-ausgeduennt.docx,La Belgique à travers la caricature,-1,,5-7,,,,
,,,M3  Comment analyser une caricature?,,,,03_analyser,la_belgique_ae_travers_la_caricature_stand-ausgeduennt.docx,La Belgique à travers la caricature,-1,,8-9,,,,
,,,M4 Description d’une caricature de Pierre Kroll,,,,04_description,la_belgique_ae_travers_la_caricature_stand-ausgeduennt.docx,La Belgique à travers la caricature,-1,,9-11,,,,
,,,M5 Fiche d’évaluation : Analyse d’une caricature,,,,05_evaluation,la_belgique_ae_travers_la_caricature_stand-ausgeduennt.docx,La Belgique à travers la caricature,-1,,12,,,,
,,,M6  „Le Belge“ présenté par deux dessinateurs belges,,,,06_dessinateurs,la_belgique_ae_travers_la_caricature_stand-ausgeduennt.docx,La Belgique à travers la caricature,-1,,13-20,,,,
,,,"M7  Pierre Kroll, un caricaturiste typiquement belge",,,,07_kroll,la_belgique_ae_travers_la_caricature_stand-ausgeduennt.docx,La Belgique à travers la caricature,-1,,21,,,,
,,,M8 Die ewige Frage: Was darf Satire?,,,,08_satire,la_belgique_ae_travers_la_caricature_stand-ausgeduennt.docx,La Belgique à travers la caricature,-1,,22,,,,
,,,Kommunikationsprüfung ,,,,09_kommpruef,la_belgique_ae_travers_la_caricature_stand-ausgeduennt.docx,La Belgique à travers la caricature,-1,,23,,,,
,,,Exercices de vocabulaire ,,,,10_exercices,la_belgique_ae_travers_la_caricature_stand-ausgeduennt.docx,La Belgique à travers la caricature,-1,,24,,,,
,,La culture de la belgitude et le parler belge,,,,,4_belge,la_culture_de_la_belgitude_et_le_parler_belge_ausgeduennt.docx,La culture de la belgitude et le parler belge,,,1-2,,,,
,,,"M1Le belgicisme et la belgitude, c’est quoi ?",,,,01_belgicisme,la_culture_de_la_belgitude_et_le_parler_belge_ausgeduennt.docx,La culture de la belgitude et le parler belge,-1,,3-4,,,,
,,,M2 La Minute belge,,,,02_minute,la_culture_de_la_belgitude_et_le_parler_belge_ausgeduennt.docx,La culture de la belgitude et le parler belge,-1,,5,,,,
,,,M3 Le pain français,,,,03_pain,la_culture_de_la_belgitude_et_le_parler_belge_ausgeduennt.docx,La culture de la belgitude et le parler belge,-1,,6-8,,,,
,,,,Lösung zu M 3.3 ,,,1_lsg,la_culture_de_la_belgitude_et_le_parler_belge_ausgeduennt.docx,La culture de la belgitude et le parler belge,-2,,12,,,,
,,,"M4 Non, peut-être",,,,04_peut-etre,la_culture_de_la_belgitude_et_le_parler_belge_ausgeduennt.docx,La culture de la belgitude et le parler belge,-1,,9,,,,
,,,M5  Le Petit Chaperon belge,,,,05_chaperon,la_culture_de_la_belgitude_et_le_parler_belge_ausgeduennt.docx,La culture de la belgitude et le parler belge,-1,,10-11,,,,
,,Le Tour de Belgique à travers la BD,,,,,5_bd,le_tour_de_belgique_ae_travers_la_bd-ausgeduennt.docx,Le Tour de Belgique à travers la BD,,,1-2,htLocalControl.txt,,,
,,,M1 Approche du monde de la BD,,,,01_monde,le_tour_de_belgique_ae_travers_la_bd-ausgeduennt.docx,Le Tour de Belgique à travers la BD,-1,,3-4,htLocalControl.txt,,,
,,,M2 Approche interculturelle du monde de la BD*,,,,02_interculturelle,le_tour_de_belgique_ae_travers_la_bd-ausgeduennt.docx,Le Tour de Belgique à travers la BD,-1,,5-7,htLocalControl.txt,,,
,,,M3  Pourquoi BD rime avec Belgique?,,,,03_rime,le_tour_de_belgique_ae_travers_la_bd-ausgeduennt.docx,Le Tour de Belgique à travers la BD,-1,,7-8,htLocalControl.txt,,,
,,,M4 Le marché du livre belge,,,,04_marche,le_tour_de_belgique_ae_travers_la_bd-ausgeduennt.docx,Le Tour de Belgique à travers la BD,-1,,9,htLocalControl.txt,,,
,,,M5 Astérix chez les Belges,,,,05_asterix,le_tour_de_belgique_ae_travers_la_bd-ausgeduennt.docx,Le Tour de Belgique à travers la BD,-1,,10-12,htLocalControl.txt,,,
,,,M6 Deux images bien différentes,,,,06_images,le_tour_de_belgique_ae_travers_la_bd-ausgeduennt.docx,Le Tour de Belgique à travers la BD,-1,,13-14,htLocalControl.txt,,,
,,,M7 Le tour de Belgique,,,,07_tour,le_tour_de_belgique_ae_travers_la_bd-ausgeduennt.docx,Le Tour de Belgique à travers la BD,-1,,15-16,htLocalControl.txt,,,
,,,M8 Le carnaval de Binche,,,,08_carneval,le_tour_de_belgique_ae_travers_la_bd-ausgeduennt.docx,Le Tour de Belgique à travers la BD,-1,,17-18,htLocalControl.txt,,,
,,,M9 Une interview avec l’auteur de la BD Le Tour de Belgique,,,,09_interview,le_tour_de_belgique_ae_travers_la_bd-ausgeduennt.docx,Le Tour de Belgique à travers la BD,-1,,19-20,htLocalControl.txt,,,
,,,M10 Dans les yeux de Camille : Parler belge,,,,10_camille,le_tour_de_belgique_ae_travers_la_bd-ausgeduennt.docx,Le Tour de Belgique à travers la BD,-1,,21-22,htLocalControl.txt,,,
,,,,Solution M 10 Exercice 4 ,,,1_lsg,le_tour_de_belgique_ae_travers_la_bd-ausgeduennt.docx,Le Tour de Belgique à travers la BD,-2,,26,htLocalControl.txt,,,
,,,M11 Spirou in Berlin,,,,11_spirou,le_tour_de_belgique_ae_travers_la_bd-ausgeduennt.docx,Le Tour de Belgique à travers la BD,-1,,23-24,htLocalControl.txt,,,
,,,Kommunikationsprüfung ,,,,12_kommpruef,le_tour_de_belgique_ae_travers_la_bd-ausgeduennt.docx,Le Tour de Belgique à travers la BD,-1,,25,htLocalControl.txt,,,
,Sprechen: drei Ateliers zum Kompetenzaufbau,,,,,,3_sprechen,,,,,,,,,
,,Gesamtdossier,,,Gesamtdossier: Methoden Préparation à l‘examen oral,,1_gesamt,"gesamtdossier_methoden_preparation_ae_lexamen_oral.docx,gesamtdossier_methoden_preparation_ae_lexamen_oral.pdf","Gesamtdossier: Methoden Préparation à l‘examen oral,Gesamtdossier: Methoden Préparation à l‘examen oral",",",,,,Evtl. mit Screenshot-Slider umsetzen,,
,,,Vorwort ,,,,01_vorwort,"gesamtdossier_methoden_preparation_ae_lexamen_oral.docx,gesamtdossier_methoden_preparation_ae_lexamen_oral.pdf","Gesamtdossier: Methoden Préparation à l‘examen oral,Gesamtdossier: Methoden Préparation à l‘examen oral","-1,-1",,3,,,,
,,,M1 – Wortschatz lernen ,,,,02_wortschatz,"gesamtdossier_methoden_preparation_ae_lexamen_oral.docx,gesamtdossier_methoden_preparation_ae_lexamen_oral.pdf","Gesamtdossier: Methoden Préparation à l‘examen oral,Gesamtdossier: Methoden Préparation à l‘examen oral","-1,-1",,4,,,,
,,,M2 – Paraphrasieren ,,,,03_paraphras,"gesamtdossier_methoden_preparation_ae_lexamen_oral.docx,gesamtdossier_methoden_preparation_ae_lexamen_oral.pdf","Gesamtdossier: Methoden Préparation à l‘examen oral,Gesamtdossier: Methoden Préparation à l‘examen oral","-1,-1",,5,,,,
,,,M3 – Texterschließung mit unbekannten Wörtern,,M3 – Texterschließung mit unbekannten Wörtern im Text,,04_unbekannt,"gesamtdossier_methoden_preparation_ae_lexamen_oral.docx,gesamtdossier_methoden_preparation_ae_lexamen_oral.pdf","Gesamtdossier: Methoden Préparation à l‘examen oral,Gesamtdossier: Methoden Préparation à l‘examen oral","-1,-1",,8-11,,,,
,,,M4 – Fiche de production orale ,,M4 – Arbeit mit einer fiche de production orale ,,05_fiche,"gesamtdossier_methoden_preparation_ae_lexamen_oral.docx,gesamtdossier_methoden_preparation_ae_lexamen_oral.pdf","Gesamtdossier: Methoden Préparation à l‘examen oral,Gesamtdossier: Methoden Préparation à l‘examen oral","-1,-1",,12-14,,,,
,,,M5 – Nachhaltige Arbeit mit Feedback-Bögen ,,,,06_feedback,"gesamtdossier_methoden_preparation_ae_lexamen_oral.docx,gesamtdossier_methoden_preparation_ae_lexamen_oral.pdf","Gesamtdossier: Methoden Préparation à l‘examen oral,Gesamtdossier: Methoden Préparation à l‘examen oral","-1,-1",,15-17,,,,
,,,M6 – Résumer un texte à l’oral ,,,,07_resumer,"gesamtdossier_methoden_preparation_ae_lexamen_oral.docx,gesamtdossier_methoden_preparation_ae_lexamen_oral.pdf","Gesamtdossier: Methoden Préparation à l‘examen oral,Gesamtdossier: Methoden Préparation à l‘examen oral","-1,-1",,18-19,,,,
,,,M7 – Mit Karten / postits präsentieren ,,,,08_postits,"gesamtdossier_methoden_preparation_ae_lexamen_oral.docx,gesamtdossier_methoden_preparation_ae_lexamen_oral.pdf","Gesamtdossier: Methoden Préparation à l‘examen oral,Gesamtdossier: Methoden Préparation à l‘examen oral","-1,-1",,20,,,,
,,,M8 – Verschiedene Methoden der Notizen ,,,,09_notizen,"gesamtdossier_methoden_preparation_ae_lexamen_oral.docx,gesamtdossier_methoden_preparation_ae_lexamen_oral.pdf","Gesamtdossier: Methoden Préparation à l‘examen oral,Gesamtdossier: Methoden Préparation à l‘examen oral","-1,-1",,21-23,,Vmtl. Keine Rectheeinholung für die Schülerarbeiten auf Seite 23 und 28 erhalten → müssten ansonsten entfernt werden (vgl Mail Grischa vom 16.3.22),,
,,,M9 – Arbeit mit Sketchnotes 1 ,,,,10_sketch1,"gesamtdossier_methoden_preparation_ae_lexamen_oral.docx,gesamtdossier_methoden_preparation_ae_lexamen_oral.pdf","Gesamtdossier: Methoden Préparation à l‘examen oral,Gesamtdossier: Methoden Préparation à l‘examen oral","-1,-1",,24,,,,
,,,M10 – Arbeit mit Sketchnotes 2 ,,,,11_sketch2,"gesamtdossier_methoden_preparation_ae_lexamen_oral.docx,gesamtdossier_methoden_preparation_ae_lexamen_oral.pdf","Gesamtdossier: Methoden Préparation à l‘examen oral,Gesamtdossier: Methoden Préparation à l‘examen oral","-1,-1",,25-26,,,,
,,,M11 – Arbeit mit Sketchnotes 3,,,,12_sketch3,"gesamtdossier_methoden_preparation_ae_lexamen_oral.docx,gesamtdossier_methoden_preparation_ae_lexamen_oral.pdf","Gesamtdossier: Methoden Préparation à l‘examen oral,Gesamtdossier: Methoden Préparation à l‘examen oral","-1,-1",,27-28,,Vmtl. Keine Rectheeinholung für die Schülerarbeiten auf Seite 23 und 28 erhalten → müssten ansonsten entfernt werden (vgl Mail Grischa vom 16.3.22),,
,,,M12 – Arbeit mit Sketchnotes 4,,,,13_sketch4,"gesamtdossier_methoden_preparation_ae_lexamen_oral.docx,gesamtdossier_methoden_preparation_ae_lexamen_oral.pdf","Gesamtdossier: Methoden Préparation à l‘examen oral,Gesamtdossier: Methoden Préparation à l‘examen oral","-1,-1",,29-31,,,,
,,,M13 – Arbeit mit Sketchnotes 5,,,,14_sketch5,"gesamtdossier_methoden_preparation_ae_lexamen_oral.docx,gesamtdossier_methoden_preparation_ae_lexamen_oral.pdf","Gesamtdossier: Methoden Préparation à l‘examen oral,Gesamtdossier: Methoden Préparation à l‘examen oral","-1,-1",,32,,,,
,,,M14 – Grille d’analyse ,,,,15_grille,"gesamtdossier_methoden_preparation_ae_lexamen_oral.docx,gesamtdossier_methoden_preparation_ae_lexamen_oral.pdf","Gesamtdossier: Methoden Préparation à l‘examen oral,Gesamtdossier: Methoden Préparation à l‘examen oral","-1,-1",,33,,,,
,,,M15 – Arbeit mit Sketchnotes 6 ,,,,16_sketch6,"gesamtdossier_methoden_preparation_ae_lexamen_oral.docx,gesamtdossier_methoden_preparation_ae_lexamen_oral.pdf","Gesamtdossier: Methoden Préparation à l‘examen oral,Gesamtdossier: Methoden Préparation à l‘examen oral","-1,-1",,34-35,,,,
,,,M16 – Die Pecha-Kucha Methode ,,,,17_pecha-kucha,"gesamtdossier_methoden_preparation_ae_lexamen_oral.docx,gesamtdossier_methoden_preparation_ae_lexamen_oral.pdf","Gesamtdossier: Methoden Préparation à l‘examen oral,Gesamtdossier: Methoden Préparation à l‘examen oral","-1,-1",,36,,,,
,,,Quellen und weiterführende Literatur,,Quellen und weiterführende Literatur zu den Methoden ,,18_quellen,"gesamtdossier_methoden_preparation_ae_lexamen_oral.docx,gesamtdossier_methoden_preparation_ae_lexamen_oral.pdf","Gesamtdossier: Methoden Préparation à l‘examen oral,Gesamtdossier: Methoden Préparation à l‘examen oral","-1,-1",,37-38,,,,
,,Dossier Aya,,,,,2_aya,dossier_aya_complet-rechtefrei.pdf,Dossier Aya,,,,"htLocalControl.txt

Muss 3 Jahre, nachdem das Passwort entfernt wurde, gelöscht werden!!!

Rechnung wird erst bezahlt, wenn Passwort fällt > Mitteilung an Gaum","kein Download der Datei an dieser Stelle, da in den Unterordnern umgesetzt

 Evtl. mit Screenshot-Slider umsetzen",,
,,,Konzeption ,,,,01_konzeption,dossier_aya_complet-rechtefrei.pdf,Dossier Aya,-1,,2,htLocalControl.txt,,,
,,,Didaktische Hinweise ,,,,02_hinweise,dossier_aya_complet-rechtefrei.pdf,Dossier Aya,-1,,2-4,htLocalControl.txt,,,
,,,M1 – Approche : la Francophonie ,,,,03_approche,dossier_aya_complet-rechtefrei.pdf,Dossier Aya,-1,,5-7,htLocalControl.txt,,,
,,,M2 – La Francophonie ,,M2 – La Francophonie – Images de l’Afrique ,,04_images,dossier_aya_complet-rechtefrei.pdf,Dossier Aya,-1,,8-10,htLocalControl.txt,,,
,,,M3 – Introduction à la BD : Aya et la Côte d’Ivoire ,,,,05_introduction,dossier_aya_complet-rechtefrei.pdf,Dossier Aya,-1,,11-13,htLocalControl.txt,,,
,,,M4 – Aya et le français ivoirien ,,,,06_ivorien,dossier_aya_complet-rechtefrei.pdf,Dossier Aya,-1,,14,htLocalControl.txt,,,
,,,M5 – Aya et ses amies ,,,,07_amies,dossier_aya_complet-rechtefrei.pdf,Dossier Aya,-1,,15,htLocalControl.txt,,,
,,,M6 – ZOOM sur les personnages ,,,,08_zoom,dossier_aya_complet-rechtefrei.pdf,Dossier Aya,-1,,16-18,htLocalControl.txt,,,
,,,M7 – Discussions entre filles ,,,,09_discussions,dossier_aya_complet-rechtefrei.pdf,Dossier Aya,-1,,19-24,htLocalControl.txt,,,
,,,M9 – Une dispute ,,,,10_dispute,dossier_aya_complet-rechtefrei.pdf,Dossier Aya,-1,,25,htLocalControl.txt,,,
,,,M10 – La grossesse précoce ,,,,11_grossesse,dossier_aya_complet-rechtefrei.pdf,Dossier Aya,-1,,26-27,htLocalControl.txt,,,
,,,M11 – La société ivoirienne ,,,,12_societe,dossier_aya_complet-rechtefrei.pdf,Dossier Aya,-1,,28-30,htLocalControl.txt,,,
,,,M12 – débat ,,,,13_debat,dossier_aya_complet-rechtefrei.pdf,Dossier Aya,-1,,31-33,htLocalControl.txt,,,
,,Les campagnes publicitaires,,,,,3_publicitaires,mon_sprechen_les_campagnes_publicitaires_rechtefrei.pdf,Les campagnes publicitaires,,,,,"kein Download der Datei an dieser Stelle, da in den Unterordnern umgesetzt

Evtl. mit Screenshot-Slider umsetzen",,
,,,Konzeption ,,,,01_konzeption,mon_sprechen_les_campagnes_publicitaires_rechtefrei.pdf,Les campagnes publicitaires,-1,,2,,,,
,,,Didaktische Hinweise ,,,,02_didaktik,mon_sprechen_les_campagnes_publicitaires_rechtefrei.pdf,Les campagnes publicitaires,-1,,2-4,,,,
,,,M1 – Approche : La pub et ses stratégies ,,,,03_approche,mon_sprechen_les_campagnes_publicitaires_rechtefrei.pdf,Les campagnes publicitaires,-1,,5-8,,,,
,,,M2 – Les affiches publicitaires ,,,,04_affiches,mon_sprechen_les_campagnes_publicitaires_rechtefrei.pdf,Les campagnes publicitaires,-1,,9-13,,,,
,,,M3 – Les spots publicitaires ,,,,05_spots,mon_sprechen_les_campagnes_publicitaires_rechtefrei.pdf,Les campagnes publicitaires,-1,,14-16,,,,
,,,M4 – L’évolution de la pub: les stéréotypes abolis? ,,,,06_evolution,mon_sprechen_les_campagnes_publicitaires_rechtefrei.pdf,Les campagnes publicitaires,-1,,17-18,,,,
,,,M5 – La pub engagée et les campagnes de sensibilisation ,,,,07_engagee,mon_sprechen_les_campagnes_publicitaires_rechtefrei.pdf,Les campagnes publicitaires,-1,,19-23,,,,
,,,M6 – Médiation ,,,,08_mediation,mon_sprechen_les_campagnes_publicitaires_rechtefrei.pdf,Les campagnes publicitaires,-1,,24,,,,
,,,M7 – Prise de conscience des problèmes sociaux à travers la publicité engagée,,"M7 – Prise de conscience des problèmes sociaux à travers la publicité engagée: la crise du logement, le changement climatique, le racisme, le sexisme ",,09_prise,mon_sprechen_les_campagnes_publicitaires_rechtefrei.pdf,Les campagnes publicitaires,-1,,25-28,,,,
,,,M8 – Tâche finale ,,M8 – Tâche finale : Concours d’affiches ou spots de sensibilisation ,,10_finale,mon_sprechen_les_campagnes_publicitaires_rechtefrei.pdf,Les campagnes publicitaires,-1,,29,,,,
,"Leseverstehen: Lektüre ""Les petites reines""",,,,,,4_lesen-lektuere,,,,,,,,,
,,Beauvais - Les petites reines: Présentation,,,,,1_praes,01_beauvais_les_petites_reines_presentation.pdf,Beauvais - Les petites reines: Présentation,,,,,Evtl. Huber-Mundt-Skript oder Screenshot-Slider anwenden oder mit Vorschaubild umsetzen,,
,,Beauvais - Les petites reines: Dossier,,,,,2_dossier,"02_beauvais_les_petites_reines_dossier.docx,03_beauvais_les_petites_reines_dossier.pdf","Beauvais - Les petites reines: Dossier,Beauvais - Les petites reines: Dossier",",",,1,,,,
,,,Vorwort ,,,,01_vorwort,"02_beauvais_les_petites_reines_dossier.docx,03_beauvais_les_petites_reines_dossier.pdf","Beauvais - Les petites reines: Dossier,Beauvais - Les petites reines: Dossier","-1,-1",,"3,4",,,,
,,,Mögliche Themen und Materialien ,,,,02_moeglich,"02_beauvais_les_petites_reines_dossier.docx,03_beauvais_les_petites_reines_dossier.pdf","Beauvais - Les petites reines: Dossier,Beauvais - Les petites reines: Dossier","-1,-1",,"5,6",,,,
,,,Unterrichtsvorschlag ,,,,03_vorschlag,"02_beauvais_les_petites_reines_dossier.docx,03_beauvais_les_petites_reines_dossier.pdf","Beauvais - Les petites reines: Dossier,Beauvais - Les petites reines: Dossier","-1,-1",,7-8,,,,
,,,M1 – Le concours des boudins,,,,04_m1,"02_beauvais_les_petites_reines_dossier.docx,03_beauvais_les_petites_reines_dossier.pdf","Beauvais - Les petites reines: Dossier,Beauvais - Les petites reines: Dossier","-1,-1",,9,,,,
,,,M2.1 – Les personnages principaux ,,,,05_m2-1,"02_beauvais_les_petites_reines_dossier.docx,03_beauvais_les_petites_reines_dossier.pdf","Beauvais - Les petites reines: Dossier,Beauvais - Les petites reines: Dossier","-1,-1",,10-11,,,,
,,,M2.2 – Les personnages principaux,,,,06_m2-2,"02_beauvais_les_petites_reines_dossier.docx,03_beauvais_les_petites_reines_dossier.pdf","Beauvais - Les petites reines: Dossier,Beauvais - Les petites reines: Dossier","-1,-1",,12-13,,,,
,,,M2.3 – Les personnages principaux,,,,07_m2-3,"02_beauvais_les_petites_reines_dossier.docx,03_beauvais_les_petites_reines_dossier.pdf","Beauvais - Les petites reines: Dossier,Beauvais - Les petites reines: Dossier","-1,-1",,14-15,,,,
,,,M3 – L’idée de Mireille,,,,08_m3,"02_beauvais_les_petites_reines_dossier.docx,03_beauvais_les_petites_reines_dossier.pdf","Beauvais - Les petites reines: Dossier,Beauvais - Les petites reines: Dossier","-1,-1",,16,,,,
,,,M4 – Le projet,,,,09_m4,"02_beauvais_les_petites_reines_dossier.docx,03_beauvais_les_petites_reines_dossier.pdf","Beauvais - Les petites reines: Dossier,Beauvais - Les petites reines: Dossier","-1,-1",,17,,,,
,,,M5 –  Le voyage à Paris,,,,10_m5,"02_beauvais_les_petites_reines_dossier.docx,03_beauvais_les_petites_reines_dossier.pdf","Beauvais - Les petites reines: Dossier,Beauvais - Les petites reines: Dossier","-1,-1",,,,,,
,,,,M5 –Les réactions de l’entourage (p.75 – 104),,,1_m5,"02_beauvais_les_petites_reines_dossier.docx,03_beauvais_les_petites_reines_dossier.pdf","Beauvais - Les petites reines: Dossier,Beauvais - Les petites reines: Dossier","-2,-2",,18,,,,
,,,,M5 – La préparation du voyage (p.79 – 107),,,2_m5,"02_beauvais_les_petites_reines_dossier.docx,03_beauvais_les_petites_reines_dossier.pdf","Beauvais - Les petites reines: Dossier,Beauvais - Les petites reines: Dossier","-2,-2",,19,,,,
,,,,M5 – En route pour … Mâcon (p.111 – 120) ,,,3_m5,"02_beauvais_les_petites_reines_dossier.docx,03_beauvais_les_petites_reines_dossier.pdf","Beauvais - Les petites reines: Dossier,Beauvais - Les petites reines: Dossier","-2,-2",,20,,,,
,,,,M5 – En route pour … Cluny (p.120 – 142) ,,,4_m5,"02_beauvais_les_petites_reines_dossier.docx,03_beauvais_les_petites_reines_dossier.pdf","Beauvais - Les petites reines: Dossier,Beauvais - Les petites reines: Dossier","-2,-2",,21,,,,
,,,,M5 – En route pour … l’étang du Rousset (p.142 – 156),,,5_m5,"02_beauvais_les_petites_reines_dossier.docx,03_beauvais_les_petites_reines_dossier.pdf","Beauvais - Les petites reines: Dossier,Beauvais - Les petites reines: Dossier","-2,-2",,22,,,,
,,,,M5 – Le château de Longuemort (p.157 – 175),,,6_m5,"02_beauvais_les_petites_reines_dossier.docx,03_beauvais_les_petites_reines_dossier.pdf","Beauvais - Les petites reines: Dossier,Beauvais - Les petites reines: Dossier","-2,-2",,23,,,,
,,,,M5 – En route pour … Nevers (p.176 – 193),,,7_m5,"02_beauvais_les_petites_reines_dossier.docx,03_beauvais_les_petites_reines_dossier.pdf","Beauvais - Les petites reines: Dossier,Beauvais - Les petites reines: Dossier","-2,-2",,24,,,,
,,,,M5 – En route pour … Sancerre (p.194 – 214) ,,,8_m5,"02_beauvais_les_petites_reines_dossier.docx,03_beauvais_les_petites_reines_dossier.pdf","Beauvais - Les petites reines: Dossier,Beauvais - Les petites reines: Dossier","-2,-2",,25,,,,
,,,,M5 – En route pour … Choisy-le-Roi (p.214 – 235),,,9_m5,"02_beauvais_les_petites_reines_dossier.docx,03_beauvais_les_petites_reines_dossier.pdf","Beauvais - Les petites reines: Dossier,Beauvais - Les petites reines: Dossier","-2,-2",,26,,,,
,,,M6 – Le voyage à Paris – présentations,,,,11_m6,"02_beauvais_les_petites_reines_dossier.docx,03_beauvais_les_petites_reines_dossier.pdf","Beauvais - Les petites reines: Dossier,Beauvais - Les petites reines: Dossier","-2,-2",,27,,,,
,,,M7 – La révélation,,,,12_m7,"02_beauvais_les_petites_reines_dossier.docx,03_beauvais_les_petites_reines_dossier.pdf","Beauvais - Les petites reines: Dossier,Beauvais - Les petites reines: Dossier","-2,-2",,28,,,,
,,,Verwendete Materialien ,,,,13_mat,"02_beauvais_les_petites_reines_dossier.docx,03_beauvais_les_petites_reines_dossier.pdf","Beauvais - Les petites reines: Dossier,Beauvais - Les petites reines: Dossier","-2,-2",,29,,,,
,,Beauvais - Les petites reines: Larrivée à Paris,,,,,3_paris,04_beauvais_les_petites_reines_larrivee_ae_paris.pptx,"Beauvais - Les petites reines: Larrivée à Paris,Beauvais - Les petites reines: Larrivée à Paris",",",,,,iSpring-Ordner umsetzen (ohne Notizen),,
,,Beauvais - Les petites reines: Le 14 juillet,,,,,4_juillet,05_beauvais_les_petites_reines_le_14_juillet.pptx,Beauvais - Les petites reines: Le 14 juillet,,,,,iSpring-Ordner umsetzen (ohne Notizen),,
,Leseverstehen und Textanalyse,,,,,,5_lesen-text,,,,,,,,,
,,Lektüreempfehlungen BF,,,,,1_lektuere-bf,liste_-_lektuerevorschlaege_bf.docx,Lektüreempfehlungen BF,,,,,,,
,,Lektüreempfehlungen LF,,,,,2_lektuere-lf,liste_lektuerevorschlaege_-_lf.docx,Lektüreempfehlungen LF,,,,,,,
,,Nicolas Mathieu - Analyse Hacine - l'orientation,,,,,3_mathieu,"nicolas_mathieu_-_analyse_hacine_-_lorientation.docx,nicolas_mathieu_-_analyse_hacine_-_lorientation.pdf","Nicolas Mathieu - Analyse Hacine – l'orientation,Nicolas Mathieu - Analyse Hacine – l'orientation",",",,,,,,
,,,Nicolas Mathieu - Lösungsskizze,,,,1_loeseung,"nicolas_mathieu_-_loesungsskizze.docx,nicolas_mathieu_-_loesungsskizze.pdf","Nicolas Mathieu – Lösungsskizze,Nicolas Mathieu – Lösungsskizze",",",,,,,,
,,La tresse,,,,,4_tresse,la_tresse_analyse_final-rechtefrei.pdf,La tresse,,,,,,,
,,,"La tresse, extrait 1",,"1 – Les femmes en poursuite de leurs rêves : La tresse, extrait 1",,01_extrait-1,la_tresse_analyse_final-rechtefrei.pdf,La tresse,-1,,2-4,,,,
,,,"La tresse, extrait 2",,"2 – Rêves et réalités : La tresse, extrait 2 ",,02_extrait-2,la_tresse_analyse_final-rechtefrei.pdf,La tresse,-1,,5-6,,,,
,Schreiben und Sprechen: Fiches de production écrite et orale,,,,,,6_schreiben,"fiches_de_production_ecrite_et_orale.docx,fiches_de_production_ecrite_et_orale.pdf","Fiches de produkton écrite et orale,Fiches de produkton écrite et orale",",",,,,"kein Download der Datei an dieser Stelle, da in den Unterordnern umgesetzt",,
,,Fiche d’écriture ,,,,,1_ecriture,,,,,,,,,
,,,Écrire un e-mail / une lettre ,,,,01_mail-lettre,"fiches_de_production_ecrite_et_orale.docx,fiches_de_production_ecrite_et_orale.pdf","Fiches de produkton écrite et orale,Fiches de produkton écrite et orale","-2,-2",,3,,,,
,,,Faire le portrait de qn ,,,,02_portrait,"fiches_de_production_ecrite_et_orale.docx,fiches_de_production_ecrite_et_orale.pdf","Fiches de produkton écrite et orale,Fiches de produkton écrite et orale","-2,-2",,4-5,,,,
,,,Résumer un texte ,,,,03_resumer,"fiches_de_production_ecrite_et_orale.docx,fiches_de_production_ecrite_et_orale.pdf","Fiches de produkton écrite et orale,Fiches de produkton écrite et orale","-2,-2",,7,,,,
,,,Ecrire un commentaire personnel ,,,,04_commentaire,"fiches_de_production_ecrite_et_orale.docx,fiches_de_production_ecrite_et_orale.pdf","Fiches de produkton écrite et orale,Fiches de produkton écrite et orale","-2,-2",,8-9,,,,
,,,Écrire dans un journal intime ,,,,05_journal,"fiches_de_production_ecrite_et_orale.docx,fiches_de_production_ecrite_et_orale.pdf","Fiches de produkton écrite et orale,Fiches de produkton écrite et orale","-2,-2",,10-11,,,,
,,,Monologue (intérieur) ,,,,06_interieur,"fiches_de_production_ecrite_et_orale.docx,fiches_de_production_ecrite_et_orale.pdf","Fiches de produkton écrite et orale,Fiches de produkton écrite et orale","-2,-2",,12-13,,,,
,,,Écrire un article de journal ,,,,07_article,"fiches_de_production_ecrite_et_orale.docx,fiches_de_production_ecrite_et_orale.pdf","Fiches de produkton écrite et orale,Fiches de produkton écrite et orale","-2,-2",,14-15,,,,
,,Fiche de production écrite et orale ,,,,,2_ecrite-orale,,,,,,,,,
,,,"Décrire, analyser et commenter une BD ",,,,01_bd,"fiches_de_production_ecrite_et_orale.docx,fiches_de_production_ecrite_et_orale.pdf","Fiches de produkton écrite et orale,Fiches de produkton écrite et orale","-2,-2",,16-19,,,,
,,,Décrire et analyser une caricature ,,,,02_caricature,"fiches_de_production_ecrite_et_orale.docx,fiches_de_production_ecrite_et_orale.pdf","Fiches de produkton écrite et orale,Fiches de produkton écrite et orale","-2,-2",,20-22,,,,
,,Fiche de production écrite ,,,,,3_ecrite,,,,,,,,,
,,,Rédiger un discours ,,,,01_discours,"fiches_de_production_ecrite_et_orale.docx,fiches_de_production_ecrite_et_orale.pdf","Fiches de produkton écrite et orale,Fiches de produkton écrite et orale","-2,-2",,23-25,,,,
,,,Analyser des textes narratifs ,,,,02_analyser,"fiches_de_production_ecrite_et_orale.docx,fiches_de_production_ecrite_et_orale.pdf","Fiches de produkton écrite et orale,Fiches de produkton écrite et orale","-2,-2",,26-28,,,,
,,Fiche de production orale ,,,,,4_orale,,,,,,,,,
,,,Présenter un texte littéraire ou un film ,,,,01_presenter,"fiches_de_production_ecrite_et_orale.docx,fiches_de_production_ecrite_et_orale.pdf","Fiches de produkton écrite et orale,Fiches de produkton écrite et orale","-2,-2",,29-30,,,,
,,,Présenter une affiche publicitaire ,,,,02_affiche,"fiches_de_production_ecrite_et_orale.docx,fiches_de_production_ecrite_et_orale.pdf","Fiches de produkton écrite et orale,Fiches de produkton écrite et orale","-2,-2",,31,,,,
,,,Dialogue ,,,,03_dialogue,"fiches_de_production_ecrite_et_orale.docx,fiches_de_production_ecrite_et_orale.pdf","Fiches de produkton écrite et orale,Fiches de produkton écrite et orale","-2,-2",,32-34,,,,
,,,Les petits mots de la conversation ,,,,04_mots,"fiches_de_production_ecrite_et_orale.docx,fiches_de_production_ecrite_et_orale.pdf","Fiches de produkton écrite et orale,Fiches de produkton écrite et orale","-2,-2",,35-36,,,,
,,,Préparer un examen oral ,,,,05_examen,"fiches_de_production_ecrite_et_orale.docx,fiches_de_production_ecrite_et_orale.pdf","Fiches de produkton écrite et orale,Fiches de produkton écrite et orale","-2,-2",,37-40,,,,
,Hörverstehen: Riad Sattouf - Hergé,,,,,,7_hoeren,,,,,,,,,
,,Präsentation,,,,,1_praes,ppt_a_lecoute_de_la_bd_-_une_rencontre_avec_riad_sattouf_herge_et_tintin.pptx,Präsentation,,,,htLocalControl.txt,"Quellen sind auf S. 11. Sind aber praktisch nicht zugeordnet u. in der hellen Schrift fast unkenntlich. Sollte in html sauber umgesetzt werden, dann muss das Original nicht angefasst werden
(vgl. Mail von Grisch 16.03.2022)

iSpring-Ordner umsetzen (ohne Notizen)",,
,,A l' écoute de la BD - première partie,,,,,2_permiere,"a_lecoute_de_la_bd_-_premiere_partie.docx,a_lecoute_de_la_bd_-_premiere_partie.pdf","A l' écoute de la BD - première partie,A l' écoute de la BD - première partie",",",,"1,4 (ohne Seite 2 und 3, Teil 2 auf Seite 3 bezieht sich auf „A l' écoute de la BD - deuxième partie )",htLocalControl.txt,Evtl. Huber-Mundt-Skript oder Screenshot-Slider anwenden …,,
,,,Didaktische Hinweise ,,,,01_hinweise,"a_lecoute_de_la_bd_-_premiere_partie.docx,a_lecoute_de_la_bd_-_premiere_partie.pdf","A l' écoute de la BD - première partie,A l' écoute de la BD - première partie","-1,-1",,5,htLocalControl.txt,,,
,,,,Riad Sattouf und Hergé ,,,1_sattouf-herge,"a_lecoute_de_la_bd_-_premiere_partie.docx,a_lecoute_de_la_bd_-_premiere_partie.pdf","A l' écoute de la BD - première partie,A l' écoute de la BD - première partie","-2,-2",,5,htLocalControl.txt,,,
,,,,Bildungsplan 2016,BP 2016 Hör-/Hörsehverstehen – Klassen 11/12 – GeR B2 ,,2_bp,"a_lecoute_de_la_bd_-_premiere_partie.docx,a_lecoute_de_la_bd_-_premiere_partie.pdf","A l' écoute de la BD - première partie,A l' écoute de la BD - première partie","-2,-2",,6-7,htLocalControl.txt,,,
,,,,Kompetenzaufbau und Lernerfolgskontrolle ,,,3_komp-lern,"a_lecoute_de_la_bd_-_premiere_partie.docx,a_lecoute_de_la_bd_-_premiere_partie.pdf","A l' écoute de la BD - première partie,A l' écoute de la BD - première partie","-2,-2",,7-9,htLocalControl.txt,,,
,,,Themenspezifischer Wortschatz ,,,,02_spezif,"a_lecoute_de_la_bd_-_premiere_partie.docx,a_lecoute_de_la_bd_-_premiere_partie.pdf","A l' écoute de la BD - première partie,A l' écoute de la BD - première partie","-1,-1",,10-12,htLocalControl.txt,,,
,,,Le nouveau poste,,Riad Sattouf: L’Arabe du futur – Le nouveau poste ,,03_futur,"a_lecoute_de_la_bd_-_premiere_partie.docx,a_lecoute_de_la_bd_-_premiere_partie.pdf","A l' écoute de la BD - première partie,A l' écoute de la BD - première partie","-1,-1",,13-16,htLocalControl.txt,,,
,,,,Préparation de l’écoute et différenciation,Préparation de l’écoute et différenciation : stratégies et vocabulaire ,,1__prep,"a_lecoute_de_la_bd_-_premiere_partie.docx,a_lecoute_de_la_bd_-_premiere_partie.pdf","A l' écoute de la BD - première partie,A l' écoute de la BD - première partie","-2,-2",,17-19,htLocalControl.txt,,,
,,,Les cours universitaires en Arabie saoudite ,,Riad Sattouf: L’Arabe du futur – Les cours universitaires en Arabie saoudite ,,04_cours,"a_lecoute_de_la_bd_-_premiere_partie.docx,a_lecoute_de_la_bd_-_premiere_partie.pdf","A l' écoute de la BD - première partie,A l' écoute de la BD - première partie","-1,-1",,20-22,htLocalControl.txt,,,
,,,Interview avec Riad Sattouf 1,,Interview avec Riad Sattouf lors de la parution de L’Arabe du futur 1 ,,05_interview-1,"a_lecoute_de_la_bd_-_premiere_partie.docx,a_lecoute_de_la_bd_-_premiere_partie.pdf","A l' écoute de la BD - première partie,A l' écoute de la BD - première partie","-1,-1",,23-28,htLocalControl.txt,Evtl. Huber-Mundt-Skript oder Screenshot-Slider anwenden oder mit Vorschaubild umsetzen,,
,,,Interview avec Riad Sattouf 2,,Riad Sattouf – Interview lors de la parution du 4e volume de L’Arabe du futur ,,06_interview-2,"a_lecoute_de_la_bd_-_premiere_partie.docx,a_lecoute_de_la_bd_-_premiere_partie.pdf","A l' écoute de la BD - première partie,A l' écoute de la BD - première partie","-1,-1",,29-33,htLocalControl.txt,Evtl. Huber-Mundt-Skript oder Screenshot-Slider anwenden oder mit Vorschaubild umsetzen,,
,,,Interview avec Riad Sattouf 3,,Interview avec Riad Sattouf: « Le mot arabe est quasiment... » ,,07_interview-3,"a_lecoute_de_la_bd_-_premiere_partie.docx,a_lecoute_de_la_bd_-_premiere_partie.pdf","A l' écoute de la BD - première partie,A l' écoute de la BD - première partie","-1,-1",,34-39,htLocalControl.txt,Evtl. Huber-Mundt-Skript oder Screenshot-Slider anwenden oder mit Vorschaubild umsetzen,,
,,,„Avec L‘Arabe du futur 4“ (BF),,"Riad Sattouf : «Avec L'Arabe du futur 4, je me suis libéré de mon secret de famille» (BF)",,08_avec-bf,"a_lecoute_de_la_bd_-_premiere_partie.docx,a_lecoute_de_la_bd_-_premiere_partie.pdf","A l' écoute de la BD - première partie,A l' écoute de la BD - première partie","-1,-1",,40-42,htLocalControl.txt,Evtl. Huber-Mundt-Skript oder Screenshot-Slider anwenden oder mit Vorschaubild umsetzen,,
,,,„Avec L‘Arabe du futur 4“ (LF),,"Riad Sattouf : «Avec L'Arabe du futur 4, je me suis libéré de mon secret de familie » (LF)",,09_avec-lf,"a_lecoute_de_la_bd_-_premiere_partie.docx,a_lecoute_de_la_bd_-_premiere_partie.pdf","A l' écoute de la BD - première partie,A l' écoute de la BD - première partie","-1,-1",,43-45,htLocalControl.txt,Evtl. Huber-Mundt-Skript oder Screenshot-Slider anwenden oder mit Vorschaubild umsetzen,,
,,,„Der Araber von morgen“ ,,Médiation: „Der Araber von morgen“ ,,10_morgen,"a_lecoute_de_la_bd_-_premiere_partie.docx,a_lecoute_de_la_bd_-_premiere_partie.pdf","A l' écoute de la BD - première partie,A l' écoute de la BD - première partie","-1,-1",,46,htLocalControl.txt,,,
,,,Riad Sattouf et le dessin ,,Interview : Riad Sattouf et le dessin ,,11_dessin,"a_lecoute_de_la_bd_-_premiere_partie.docx,a_lecoute_de_la_bd_-_premiere_partie.pdf","A l' écoute de la BD - première partie,A l' écoute de la BD - première partie","-1,-1",,47-48,htLocalControl.txt,,,
,,,On a retrouvé Mme Chapalain (BF),,"On a retrouvé Mme Chapalain, la prof qui a changé la vie de Riad Sattouf (BF)",,12_chapalain-bf,"a_lecoute_de_la_bd_-_premiere_partie.docx,a_lecoute_de_la_bd_-_premiere_partie.pdf","A l' écoute de la BD - première partie,A l' écoute de la BD - première partie","-1,-1",,49,htLocalControl.txt,,,
,,,On a retrouvé Mme Chapalain (LF),,"On a retrouvé Mme Chapalain, la prof qui a changé la vie de Riad Sattouf (LF)",,13_chapalain-lf,"a_lecoute_de_la_bd_-_premiere_partie.docx,a_lecoute_de_la_bd_-_premiere_partie.pdf","A l' écoute de la BD - première partie,A l' écoute de la BD - première partie","-1,-1",,50,htLocalControl.txt,,,
,,,„Zwischen Maputo und Karl-Marx-Stadt“ ,,Médiation : „Zwischen Maputo und Karl-Marx-Stadt“ ,,14_zwischen,"a_lecoute_de_la_bd_-_premiere_partie.docx,a_lecoute_de_la_bd_-_premiere_partie.pdf","A l' écoute de la BD - première partie,A l' écoute de la BD - première partie","-1,-1",,51,htLocalControl.txt,,,
,,,La masterclasse,,La masterclasse avec Riad Sattouf – exercice de compréhension globale ,,15_master,"a_lecoute_de_la_bd_-_premiere_partie.docx,a_lecoute_de_la_bd_-_premiere_partie.pdf","A l' écoute de la BD - première partie,A l' écoute de la BD - première partie","-1,-1",,52,htLocalControl.txt,,,
,,,,Préparation de l’écoute,Préparation de l’écoute : stratégies et vocabulaire ,,1_prep,"a_lecoute_de_la_bd_-_premiere_partie.docx,a_lecoute_de_la_bd_-_premiere_partie.pdf","A l' écoute de la BD - première partie,A l' écoute de la BD - première partie","-2,-2",,53,htLocalControl.txt,,,
,,A l' écoute de la BD - deuxième partie ,,,,,3_deuxieme,"a_lecoute_de_la_bd_-_deuxieme_partie.docx,a_lecoute_de_la_bd_-_deuxieme_partie.pdf","A l' écoute de la BD - deuxième partie ,A l' écoute de la BD - deuxième partie ",",",,,htLocalControl.txt,,,
,,,"Hergé, le père de Tintin ",,,,01_pere,"a_lecoute_de_la_bd_-_deuxieme_partie.docx,a_lecoute_de_la_bd_-_deuxieme_partie.pdf","A l' écoute de la BD - deuxième partie ,A l' écoute de la BD - deuxième partie ","-1,-1",,2,htLocalControl.txt,,,
,,,Les débuts,,Les débuts d’Hergé et de Tintin ,,02_debuts,"a_lecoute_de_la_bd_-_deuxieme_partie.docx,a_lecoute_de_la_bd_-_deuxieme_partie.pdf","A l' écoute de la BD - deuxième partie ,A l' écoute de la BD - deuxième partie ","-1,-1",,3-5,htLocalControl.txt,,,
,,,Tintin et les autres ,,,,03_autres,"a_lecoute_de_la_bd_-_deuxieme_partie.docx,a_lecoute_de_la_bd_-_deuxieme_partie.pdf","A l' écoute de la BD - deuxième partie ,A l' écoute de la BD - deuxième partie ","-1,-1",,6,htLocalControl.txt,,,
,,,Les autres personnages (BF),,Hergé et Tintin: les autres personnages de la BD (BF),,04_person-bf,"a_lecoute_de_la_bd_-_deuxieme_partie.docx,a_lecoute_de_la_bd_-_deuxieme_partie.pdf","A l' écoute de la BD - deuxième partie ,A l' écoute de la BD - deuxième partie ","-1,-1",,7-9,htLocalControl.txt,,,
,,,,Préparation de l’écoute et différenciation (BF),Préparation de l’écoute et différenciation : stratégies et vocabulaire (BF),,1__prep,"a_lecoute_de_la_bd_-_deuxieme_partie.docx,a_lecoute_de_la_bd_-_deuxieme_partie.pdf","A l' écoute de la BD - deuxième partie ,A l' écoute de la BD - deuxième partie ","-2,-2",,10,htLocalControl.txt,,,
,,,Les autres personnages (LF),,Hergé et Tintin: les autres personnages de la BD (LF),,05_person-lf,"a_lecoute_de_la_bd_-_deuxieme_partie.docx,a_lecoute_de_la_bd_-_deuxieme_partie.pdf","A l' écoute de la BD - deuxième partie ,A l' écoute de la BD - deuxième partie ","-1,-1",,11-13,htLocalControl.txt,,,
,,,,Préparation de l’écoute et différenciation  (LF),Préparation de l’écoute et différenciation : stratégies et vocabulaire (LF),,1__prep,"a_lecoute_de_la_bd_-_deuxieme_partie.docx,a_lecoute_de_la_bd_-_deuxieme_partie.pdf","A l' écoute de la BD - deuxième partie ,A l' écoute de la BD - deuxième partie ","-2,-2",,14,htLocalControl.txt,,,
,,,Deux albums d’Hergé (BF),,,,06_deux-bf,"a_lecoute_de_la_bd_-_deuxieme_partie.docx,a_lecoute_de_la_bd_-_deuxieme_partie.pdf","A l' écoute de la BD - deuxième partie ,A l' écoute de la BD - deuxième partie ","-1,-1",,15-17,htLocalControl.txt,,,
,,,,Préparation de l’écoute et différenciation (BF),Préparation de l’écoute et différenciation : stratégies et vocabulaire (BF),,1__prep,"a_lecoute_de_la_bd_-_deuxieme_partie.docx,a_lecoute_de_la_bd_-_deuxieme_partie.pdf","A l' écoute de la BD - deuxième partie ,A l' écoute de la BD - deuxième partie ","-2,-2",,18-19,htLocalControl.txt,,,
,,,Deux albums d’Hergé (LF),,,,07_deux-lf,"a_lecoute_de_la_bd_-_deuxieme_partie.docx,a_lecoute_de_la_bd_-_deuxieme_partie.pdf","A l' écoute de la BD - deuxième partie ,A l' écoute de la BD - deuxième partie ","-1,-1",,20-21,htLocalControl.txt,,,
,,,,Préparation de l’écoute et différenciation (LF),Préparation de l’écoute et différenciation : stratégies e vocabulaire (LF),,1__prep,"a_lecoute_de_la_bd_-_deuxieme_partie.docx,a_lecoute_de_la_bd_-_deuxieme_partie.pdf","A l' écoute de la BD - deuxième partie ,A l' écoute de la BD - deuxième partie ","-2,-2",,22-23,htLocalControl.txt,,,
,,,Tintin au Congo – ,,Tintin au Congo – Analyse de deux versions d’une vignette ,,08_congo,"a_lecoute_de_la_bd_-_deuxieme_partie.docx,a_lecoute_de_la_bd_-_deuxieme_partie.pdf","A l' écoute de la BD - deuxième partie ,A l' écoute de la BD - deuxième partie ","-1,-1",,24-25,htLocalControl.txt,,,
,,,Des dessinateurs,,Des dessinateurs – exercice de compréhension globale ,,09_dessinateurs,"a_lecoute_de_la_bd_-_deuxieme_partie.docx,a_lecoute_de_la_bd_-_deuxieme_partie.pdf","A l' écoute de la BD - deuxième partie ,A l' écoute de la BD - deuxième partie ","-1,-1",,26,htLocalControl.txt,,,
,,A l´écoute de la BD - solutions,,,,,4_solutions,"a_lecoute_de_la_bd_-_solutions_des_exercices_de_comprehension_orale_et_ecrite.docx,a_lecoute_de_la_bd_-_solutions_des_exercices_de_comprehension_orale_et_ecrite.pdf","A l´écoute de la BD – solutions,A l´écoute de la BD – solutions",",",,,,"Evtl. Screenshot-Slider anwenden (nur die ersten Folien umsetzen, auf restliche Seiten mit Link verweisen) oder mit Vorschaubild umsetzen",,
,Alle Dateien herunterladen,,,,,,8_download,,,,,,htLocalControl.txt,,,
,Informationen zur Fortbildung,,,,,,zzz_loeschen,,,,,,,,,
,Regionale Fortbildungen,,,,Informationen zu den regionalen Fortbildungen,,info_fb,,,,,,,,,
,,Anmeldung,,,,,anmeldung,,,,,,,,,
,Autorenteam,,,,,,team,,,,,,,,,
